{
  "kind": "collectionType",
  "collectionName": "commodities",
  "info": {
    "name": " Commodity",
    "description": ""
  },
  "options": {
    "increments": true,
    "timestamps": true,
    "draftAndPublish": true
  },
  "pluginOptions": {},
  "attributes": {
    "name": {
      "type": "string",
      "required": true,
      "unique": true
    },
    "image": {
      "collection": "file",
      "via": "related",
      "allowedTypes": [
        "images",
        "files",
        "videos"
      ],
      "plugin": "upload",
      "required": false,
      "pluginOptions": {}
    },
    "price": {
      "type": "integer"
    },
    "remark": {
      "type": "richtext"
    },
    "vegetables": {
      "via": "commodities",
      "collection": "vegetable"
    }
  }
}
